%TF.GenerationSoftware,KiCad,Pcbnew,6.0.7-f9a2dced07~116~ubuntu20.04.1*%
%TF.CreationDate,2022-08-29T07:47:13+07:00*%
%TF.ProjectId,slave_mesh,736c6176-655f-46d6-9573-682e6b696361,rev?*%
%TF.SameCoordinates,Original*%
%TF.FileFunction,Copper,L2,Bot*%
%TF.FilePolarity,Positive*%
%FSLAX46Y46*%
G04 Gerber Fmt 4.6, Leading zero omitted, Abs format (unit mm)*
G04 Created by KiCad (PCBNEW 6.0.7-f9a2dced07~116~ubuntu20.04.1) date 2022-08-29 07:47:13*
%MOMM*%
%LPD*%
G01*
G04 APERTURE LIST*
G04 Aperture macros list*
%AMRoundRect*
0 Rectangle with rounded corners*
0 $1 Rounding radius*
0 $2 $3 $4 $5 $6 $7 $8 $9 X,Y pos of 4 corners*
0 Add a 4 corners polygon primitive as box body*
4,1,4,$2,$3,$4,$5,$6,$7,$8,$9,$2,$3,0*
0 Add four circle primitives for the rounded corners*
1,1,$1+$1,$2,$3*
1,1,$1+$1,$4,$5*
1,1,$1+$1,$6,$7*
1,1,$1+$1,$8,$9*
0 Add four rect primitives between the rounded corners*
20,1,$1+$1,$2,$3,$4,$5,0*
20,1,$1+$1,$4,$5,$6,$7,0*
20,1,$1+$1,$6,$7,$8,$9,0*
20,1,$1+$1,$8,$9,$2,$3,0*%
G04 Aperture macros list end*
%TA.AperFunction,NonConductor*%
%ADD10C,0.200000*%
%TD*%
%TA.AperFunction,ComponentPad*%
%ADD11RoundRect,0.249999X-1.550001X0.790001X-1.550001X-0.790001X1.550001X-0.790001X1.550001X0.790001X0*%
%TD*%
%TA.AperFunction,ComponentPad*%
%ADD12O,3.600000X2.080000*%
%TD*%
%TA.AperFunction,ComponentPad*%
%ADD13RoundRect,0.249999X1.550001X-0.790001X1.550001X0.790001X-1.550001X0.790001X-1.550001X-0.790001X0*%
%TD*%
%TA.AperFunction,ComponentPad*%
%ADD14R,2.000000X3.000000*%
%TD*%
%TA.AperFunction,ComponentPad*%
%ADD15O,2.000000X3.000000*%
%TD*%
%TA.AperFunction,ComponentPad*%
%ADD16R,1.700000X1.700000*%
%TD*%
%TA.AperFunction,ComponentPad*%
%ADD17O,1.700000X1.700000*%
%TD*%
%TA.AperFunction,ComponentPad*%
%ADD18C,1.600000*%
%TD*%
%TA.AperFunction,ComponentPad*%
%ADD19O,1.600000X1.600000*%
%TD*%
%TA.AperFunction,ViaPad*%
%ADD20C,1.200000*%
%TD*%
%TA.AperFunction,Conductor*%
%ADD21C,0.500000*%
%TD*%
%TA.AperFunction,Conductor*%
%ADD22C,1.000000*%
%TD*%
%TA.AperFunction,Conductor*%
%ADD23C,2.000000*%
%TD*%
%TA.AperFunction,Conductor*%
%ADD24C,0.700000*%
%TD*%
G04 APERTURE END LIST*
D10*
X25908000Y-152400000D02*
X25908000Y-66040000D01*
X107188000Y-152400000D02*
X25908000Y-152400000D01*
X107188000Y-66040000D02*
X107188000Y-152400000D01*
X25908000Y-66040000D02*
X107188000Y-66040000D01*
D11*
%TO.P,Jj2,1,Pin_1*%
%TO.N,unconnected-(Jj2-Pad1)*%
X69817500Y-127000000D03*
D12*
%TO.P,Jj2,2,Pin_2*%
%TO.N,gnd*%
X69817500Y-132080000D03*
%TO.P,Jj2,3,Pin_3*%
X69817500Y-137160000D03*
%TO.P,Jj2,4,Pin_4*%
%TO.N,5v*%
X69817500Y-142240000D03*
%TO.P,Jj2,5,Pin_5*%
X69817500Y-147320000D03*
%TD*%
D13*
%TO.P,J2,1,Pin_1*%
%TO.N,/acn*%
X48260000Y-147320000D03*
D12*
%TO.P,J2,2,Pin_2*%
%TO.N,/acl*%
X48260000Y-142240000D03*
%TD*%
D14*
%TO.P,S2,1*%
%TO.N,/acn*%
X43683000Y-104514000D03*
D15*
%TO.P,S2,2*%
%TO.N,/t21*%
X48763000Y-104514000D03*
%TO.P,S2,3*%
%TO.N,Net-(R4-Pad1)*%
X56383000Y-104514000D03*
%TO.P,S2,4*%
%TO.N,gnd*%
X58923000Y-104514000D03*
%TD*%
D16*
%TO.P,J3,1,Pin_1*%
%TO.N,gnd*%
X86572000Y-103916000D03*
D17*
%TO.P,J3,2,Pin_2*%
%TO.N,/tx_prog*%
X89112000Y-103916000D03*
%TO.P,J3,3,Pin_3*%
%TO.N,/rx_prog*%
X91652000Y-103916000D03*
%TO.P,J3,4,Pin_4*%
%TO.N,3v3*%
X94192000Y-103916000D03*
%TD*%
D16*
%TO.P,J6,1,Pin_1*%
%TO.N,gnd*%
X73341000Y-72009000D03*
D17*
%TO.P,J6,2,Pin_2*%
%TO.N,/sda*%
X70801000Y-72009000D03*
%TO.P,J6,3,Pin_3*%
%TO.N,/scl*%
X68261000Y-72009000D03*
%TO.P,J6,4,Pin_4*%
%TO.N,5v*%
X65721000Y-72009000D03*
%TD*%
D16*
%TO.P,J5,1,Pin_1*%
%TO.N,gnd*%
X28139000Y-72009000D03*
D17*
%TO.P,J5,2,Pin_2*%
%TO.N,/sda*%
X30679000Y-72009000D03*
%TO.P,J5,3,Pin_3*%
%TO.N,/scl*%
X33219000Y-72009000D03*
%TO.P,J5,4,Pin_4*%
%TO.N,5v*%
X35759000Y-72009000D03*
%TD*%
D11*
%TO.P,J11,1,Pin_1*%
%TO.N,/acl*%
X36797500Y-82804000D03*
D12*
%TO.P,J11,2,Pin_2*%
%TO.N,/acn*%
X36797500Y-87884000D03*
%TO.P,J11,3,Pin_3*%
%TO.N,/t12*%
X36797500Y-92964000D03*
%TD*%
D16*
%TO.P,J17,1,Pin_1*%
%TO.N,/boot*%
X101040000Y-75087000D03*
D17*
%TO.P,J17,2,Pin_2*%
%TO.N,gnd*%
X101040000Y-77627000D03*
%TD*%
D13*
%TO.P,J13,1,Pin_1*%
%TO.N,Net-(J13-Pad1)*%
X101473000Y-116586000D03*
D12*
%TO.P,J13,2,Pin_2*%
%TO.N,Net-(J13-Pad2)*%
X101473000Y-111506000D03*
%TD*%
D16*
%TO.P,J9,1,Pin_1*%
%TO.N,gnd*%
X48295000Y-72044000D03*
D17*
%TO.P,J9,2,Pin_2*%
%TO.N,/sda*%
X45755000Y-72044000D03*
%TO.P,J9,3,Pin_3*%
%TO.N,/scl*%
X43215000Y-72044000D03*
%TO.P,J9,4,Pin_4*%
%TO.N,5v*%
X40675000Y-72044000D03*
%TD*%
D18*
%TO.P,Ar2,1*%
%TO.N,/g4*%
X45720000Y-111760000D03*
D19*
%TO.P,Ar2,2*%
%TO.N,gnd*%
X45720000Y-121920000D03*
%TD*%
D16*
%TO.P,J8,1,Pin_1*%
%TO.N,gnd*%
X53285000Y-72009000D03*
D17*
%TO.P,J8,2,Pin_2*%
%TO.N,/sda*%
X55825000Y-72009000D03*
%TO.P,J8,3,Pin_3*%
%TO.N,/scl*%
X58365000Y-72009000D03*
%TO.P,J8,4,Pin_4*%
%TO.N,5v*%
X60905000Y-72009000D03*
%TD*%
D14*
%TO.P,S1,1*%
%TO.N,/acn*%
X44191000Y-80638000D03*
D15*
%TO.P,S1,2*%
%TO.N,/t11*%
X49271000Y-80638000D03*
%TO.P,S1,3*%
%TO.N,Net-(R3-Pad1)*%
X56891000Y-80638000D03*
%TO.P,S1,4*%
%TO.N,gnd*%
X59431000Y-80638000D03*
%TD*%
D18*
%TO.P,Ar1,1*%
%TO.N,/g3*%
X45720000Y-87884000D03*
D19*
%TO.P,Ar1,2*%
%TO.N,gnd*%
X45720000Y-98044000D03*
%TD*%
D13*
%TO.P,J10,1,Pin_1*%
%TO.N,gnd*%
X95155500Y-135001000D03*
D12*
%TO.P,J10,2,Pin_2*%
%TO.N,/g1*%
X95155500Y-129921000D03*
%TD*%
D13*
%TO.P,J14,1,Pin_1*%
%TO.N,gnd*%
X95155500Y-148717000D03*
D12*
%TO.P,J14,2,Pin_2*%
%TO.N,/g2*%
X95155500Y-143637000D03*
%TD*%
D11*
%TO.P,J12,1,Pin_1*%
%TO.N,/acl*%
X36797500Y-106680000D03*
D12*
%TO.P,J12,2,Pin_2*%
%TO.N,/acn*%
X36797500Y-111760000D03*
%TO.P,J12,3,Pin_3*%
%TO.N,/t22*%
X36797500Y-116840000D03*
%TD*%
D18*
%TO.P,T1,1*%
%TO.N,/t11*%
X51308000Y-92964000D03*
D19*
%TO.P,T1,2*%
%TO.N,/t12*%
X41148000Y-92964000D03*
%TD*%
D16*
%TO.P,J7,1,Pin_1*%
%TO.N,/g1*%
X97230000Y-72166000D03*
D17*
%TO.P,J7,2,Pin_2*%
%TO.N,/g2*%
X94690000Y-72166000D03*
%TO.P,J7,3,Pin_3*%
%TO.N,/g3*%
X92150000Y-72166000D03*
%TO.P,J7,4,Pin_4*%
%TO.N,/g4*%
X89610000Y-72166000D03*
%TO.P,J7,5,Pin_5*%
%TO.N,/g5*%
X87070000Y-72166000D03*
%TO.P,J7,6,Pin_6*%
%TO.N,/g6*%
X84530000Y-72166000D03*
%TO.P,J7,7,Pin_7*%
%TO.N,/g7*%
X81990000Y-72166000D03*
%TO.P,J7,8,Pin_8*%
%TO.N,/g8*%
X79450000Y-72166000D03*
%TD*%
D13*
%TO.P,J1,1,Pin_1*%
%TO.N,/acn*%
X38100000Y-147320000D03*
D12*
%TO.P,J1,2,Pin_2*%
%TO.N,/acl*%
X38100000Y-142240000D03*
%TD*%
D18*
%TO.P,T2,1*%
%TO.N,/t21*%
X51308000Y-116840000D03*
D19*
%TO.P,T2,2*%
%TO.N,/t22*%
X41148000Y-116840000D03*
%TD*%
D16*
%TO.P,J16,1,Pin_1*%
%TO.N,/rst*%
X102056000Y-101879000D03*
D17*
%TO.P,J16,2,Pin_2*%
%TO.N,gnd*%
X102056000Y-104419000D03*
%TD*%
D20*
%TO.N,5v*%
X65786000Y-75057000D03*
X75565000Y-112776000D03*
X74422000Y-142113000D03*
X81026000Y-113665000D03*
%TO.N,gnd*%
X72390000Y-98552000D03*
X100532000Y-80675000D03*
X59431000Y-85847000D03*
X73152000Y-132080000D03*
X46228000Y-119888000D03*
X88265000Y-110998000D03*
X88265000Y-116586000D03*
X100965000Y-97917000D03*
X94869000Y-150749000D03*
X58923000Y-109723000D03*
X46736000Y-95504000D03*
X94869000Y-137033000D03*
%TO.N,/g2*%
X94869000Y-145669000D03*
X83947000Y-128524000D03*
X91694000Y-84709000D03*
X91896000Y-78643000D03*
%TO.N,/g1*%
X94869000Y-131953000D03*
X93853000Y-84836000D03*
X85979000Y-126873000D03*
X93674000Y-76357000D03*
%TO.N,/tx_prog*%
X90424000Y-100584000D03*
%TO.N,/rx_prog*%
X92456000Y-100711000D03*
%TO.N,3v3*%
X88138000Y-129921000D03*
X97357000Y-110034000D03*
X97357000Y-105694000D03*
X96087000Y-84739000D03*
X97028000Y-124714000D03*
X77851000Y-129286000D03*
%TO.N,/sda*%
X71628000Y-76327000D03*
%TO.N,/scl*%
X68580000Y-74930000D03*
%TO.N,/g3*%
X90391000Y-76465000D03*
X89154000Y-84328000D03*
X50292000Y-99568000D03*
X61976000Y-93980000D03*
%TO.N,/g4*%
X88891000Y-78600000D03*
X64770000Y-89408000D03*
X86360000Y-84201000D03*
X50292000Y-123444000D03*
%TO.N,/g5*%
X87391000Y-76297000D03*
%TO.N,/g6*%
X85891000Y-78353000D03*
%TO.N,/g7*%
X84530000Y-76230000D03*
%TO.N,/g8*%
X82891000Y-78274000D03*
%TO.N,/rst*%
X99389000Y-100995000D03*
%TO.N,/boot*%
X97484000Y-76103000D03*
%TO.N,Net-(R3-Pad1)*%
X54864000Y-78232000D03*
%TO.N,/o1*%
X62484000Y-91313000D03*
X79248000Y-91948000D03*
%TO.N,Net-(R4-Pad1)*%
X54356000Y-102108000D03*
%TO.N,/o2*%
X80391000Y-95758000D03*
X62611000Y-96012000D03*
%TD*%
D21*
%TO.N,5v*%
X35759000Y-72009000D02*
X40640000Y-72009000D01*
D22*
X69944500Y-142113000D02*
X69817500Y-142240000D01*
D21*
X44649000Y-76200000D02*
X40675000Y-72226000D01*
D22*
X74422000Y-142113000D02*
X69944500Y-142113000D01*
D21*
X40640000Y-72009000D02*
X40675000Y-72044000D01*
D23*
X69817500Y-147320000D02*
X69817500Y-142240000D01*
D21*
X65721000Y-72009000D02*
X60905000Y-72009000D01*
X60905000Y-72009000D02*
X56714000Y-76200000D01*
X56714000Y-76200000D02*
X44649000Y-76200000D01*
X76454000Y-113665000D02*
X75565000Y-112776000D01*
X40675000Y-72226000D02*
X40675000Y-72044000D01*
X65786000Y-75057000D02*
X65721000Y-74992000D01*
X81026000Y-113665000D02*
X76454000Y-113665000D01*
X65721000Y-74992000D02*
X65721000Y-72009000D01*
D24*
%TO.N,gnd*%
X96393000Y-148717000D02*
X97917000Y-147193000D01*
D22*
X67317500Y-129580000D02*
X67317500Y-118117500D01*
D24*
X72390000Y-138430000D02*
X71120000Y-137160000D01*
D21*
X86572000Y-103916000D02*
X86572000Y-104053000D01*
X102235000Y-97917000D02*
X100965000Y-97917000D01*
D24*
X88138000Y-116713000D02*
X88265000Y-116586000D01*
X58923000Y-104514000D02*
X58923000Y-109723000D01*
X71120000Y-137160000D02*
X69817500Y-137160000D01*
D21*
X88265000Y-108182000D02*
X89483000Y-106964000D01*
X45720000Y-96012000D02*
X46228000Y-95504000D01*
D24*
X59431000Y-80638000D02*
X59431000Y-85847000D01*
D21*
X53285000Y-72009000D02*
X57476000Y-67818000D01*
X53285000Y-72009000D02*
X48330000Y-72009000D01*
D24*
X95155500Y-148717000D02*
X95155500Y-150462500D01*
D21*
X70619000Y-80638000D02*
X59431000Y-80638000D01*
X73341000Y-72009000D02*
X73660000Y-72009000D01*
X103353000Y-104419000D02*
X104013000Y-103759000D01*
X75184000Y-73533000D02*
X75184000Y-76073000D01*
X57476000Y-67818000D02*
X69160000Y-67818000D01*
D24*
X95155500Y-150462500D02*
X94869000Y-150749000D01*
D21*
X28139000Y-72009000D02*
X28139000Y-71882000D01*
X88265000Y-110998000D02*
X88265000Y-108182000D01*
D24*
X90805000Y-135890000D02*
X90805000Y-126111000D01*
D22*
X67317500Y-118117500D02*
X58923000Y-109723000D01*
D24*
X95155500Y-135001000D02*
X95155500Y-136746500D01*
X95155500Y-136746500D02*
X94869000Y-137033000D01*
D21*
X48295000Y-72044000D02*
X48295000Y-72425000D01*
D24*
X95155500Y-148717000D02*
X96393000Y-148717000D01*
X88138000Y-123444000D02*
X88138000Y-116713000D01*
D21*
X88265000Y-110998000D02*
X88265000Y-116586000D01*
X101680000Y-104419000D02*
X102056000Y-104419000D01*
X75184000Y-76073000D02*
X70619000Y-80638000D01*
X101040000Y-80167000D02*
X100532000Y-80675000D01*
D22*
X69817500Y-132080000D02*
X67317500Y-129580000D01*
D23*
X69817500Y-132080000D02*
X69817500Y-137160000D01*
D24*
X58923000Y-109723000D02*
X61219000Y-109723000D01*
X97917000Y-140081000D02*
X94869000Y-137033000D01*
D21*
X53250000Y-72044000D02*
X53285000Y-72009000D01*
X45720000Y-121920000D02*
X45720000Y-120396000D01*
D24*
X90805000Y-126111000D02*
X88138000Y-123444000D01*
D21*
X28139000Y-71882000D02*
X32203000Y-67818000D01*
X32203000Y-67818000D02*
X44014000Y-67818000D01*
X44014000Y-67818000D02*
X48240000Y-72044000D01*
D24*
X94869000Y-137033000D02*
X91948000Y-137033000D01*
D21*
X99135000Y-106964000D02*
X101680000Y-104419000D01*
X104013000Y-99695000D02*
X102235000Y-97917000D01*
D24*
X91948000Y-137033000D02*
X90805000Y-135890000D01*
D21*
X73341000Y-71999000D02*
X73341000Y-72009000D01*
X86572000Y-104053000D02*
X89483000Y-106964000D01*
D24*
X97917000Y-147193000D02*
X97917000Y-140081000D01*
D21*
X45720000Y-120396000D02*
X46228000Y-119888000D01*
X48330000Y-72009000D02*
X48295000Y-72044000D01*
D24*
X93472000Y-138430000D02*
X72390000Y-138430000D01*
D21*
X102056000Y-104419000D02*
X103353000Y-104419000D01*
X73660000Y-72009000D02*
X75184000Y-73533000D01*
D24*
X61219000Y-109723000D02*
X72390000Y-98552000D01*
D21*
X69160000Y-67818000D02*
X73341000Y-71999000D01*
X104013000Y-103759000D02*
X104013000Y-99695000D01*
D22*
X73152000Y-132080000D02*
X69817500Y-132080000D01*
D24*
X94869000Y-137033000D02*
X93472000Y-138430000D01*
D21*
X101040000Y-77627000D02*
X101040000Y-80167000D01*
X45720000Y-98044000D02*
X45720000Y-96012000D01*
X89483000Y-106964000D02*
X99135000Y-106964000D01*
X48240000Y-72044000D02*
X48295000Y-72044000D01*
D24*
%TO.N,/g2*%
X83947000Y-128524000D02*
X83947000Y-126492000D01*
D21*
X94690000Y-73563000D02*
X91896000Y-76357000D01*
D24*
X90551000Y-93345000D02*
X90551000Y-85852000D01*
X83947000Y-126492000D02*
X82423000Y-124968000D01*
D21*
X91896000Y-76357000D02*
X91896000Y-78643000D01*
D24*
X90551000Y-85852000D02*
X91694000Y-84709000D01*
D21*
X94690000Y-72166000D02*
X94690000Y-73563000D01*
D24*
X82423000Y-124968000D02*
X82423000Y-101473000D01*
X82423000Y-101473000D02*
X90551000Y-93345000D01*
X95155500Y-145382500D02*
X94869000Y-145669000D01*
X95155500Y-143637000D02*
X95155500Y-145382500D01*
%TO.N,/g1*%
X92202000Y-94234000D02*
X92202000Y-86487000D01*
D21*
X97230000Y-72166000D02*
X97230000Y-73563000D01*
X94436000Y-76357000D02*
X93674000Y-76357000D01*
X97230000Y-73563000D02*
X94436000Y-76357000D01*
D24*
X95155500Y-129921000D02*
X95155500Y-131666500D01*
X85979000Y-125222000D02*
X84201000Y-123444000D01*
X92202000Y-86487000D02*
X93853000Y-84836000D01*
X95155500Y-131666500D02*
X94869000Y-131953000D01*
X84201000Y-102235000D02*
X92202000Y-94234000D01*
X85979000Y-126873000D02*
X85979000Y-125222000D01*
X84201000Y-123444000D02*
X84201000Y-102235000D01*
D23*
%TO.N,/acn*%
X39624000Y-111760000D02*
X36797500Y-111760000D01*
X40132000Y-87884000D02*
X36797500Y-87884000D01*
X44191000Y-83825000D02*
X40132000Y-87884000D01*
X44191000Y-80638000D02*
X44191000Y-83825000D01*
X38100000Y-147320000D02*
X48260000Y-147320000D01*
X43683000Y-104514000D02*
X43683000Y-107701000D01*
X43683000Y-107701000D02*
X39624000Y-111760000D01*
%TO.N,/acl*%
X31750000Y-110109000D02*
X35179000Y-106680000D01*
X35052000Y-106680000D02*
X31496000Y-103124000D01*
X31496000Y-103124000D02*
X31496000Y-86360000D01*
X35052000Y-82804000D02*
X36797500Y-82804000D01*
X31750000Y-138303000D02*
X31750000Y-110109000D01*
X36797500Y-106680000D02*
X35052000Y-106680000D01*
X31496000Y-86360000D02*
X35052000Y-82804000D01*
X35179000Y-106680000D02*
X36797500Y-106680000D01*
X38100000Y-142240000D02*
X35687000Y-142240000D01*
X38100000Y-142240000D02*
X48260000Y-142240000D01*
X35687000Y-142240000D02*
X31750000Y-138303000D01*
D21*
%TO.N,/tx_prog*%
X90424000Y-100584000D02*
X89112000Y-101896000D01*
X89112000Y-101896000D02*
X89112000Y-103916000D01*
%TO.N,/rx_prog*%
X92456000Y-102086000D02*
X91652000Y-102890000D01*
X91652000Y-102890000D02*
X91652000Y-103916000D01*
X92456000Y-100711000D02*
X92456000Y-102086000D01*
D22*
%TO.N,3v3*%
X87376000Y-130683000D02*
X88138000Y-129921000D01*
D21*
X94192000Y-104815000D02*
X95071000Y-105694000D01*
D22*
X79248000Y-130683000D02*
X87376000Y-130683000D01*
D21*
X94192000Y-103916000D02*
X94192000Y-104815000D01*
X94192000Y-103916000D02*
X94192000Y-86634000D01*
D22*
X77851000Y-129286000D02*
X79248000Y-130683000D01*
D21*
X95071000Y-105694000D02*
X97357000Y-105694000D01*
X94192000Y-86634000D02*
X96087000Y-84739000D01*
D22*
X97028000Y-110363000D02*
X97357000Y-110034000D01*
X97028000Y-124714000D02*
X97028000Y-110363000D01*
D21*
%TO.N,/sda*%
X55825000Y-72009000D02*
X58746000Y-69088000D01*
X70801000Y-71872000D02*
X70801000Y-72009000D01*
X45755000Y-72861000D02*
X46808000Y-73914000D01*
X45755000Y-72044000D02*
X45755000Y-72861000D01*
X70801000Y-75500000D02*
X70801000Y-72009000D01*
X45700000Y-72044000D02*
X45755000Y-72044000D01*
X55825000Y-72390000D02*
X55825000Y-72009000D01*
X33727000Y-68961000D02*
X42617000Y-68961000D01*
X58746000Y-69088000D02*
X68017000Y-69088000D01*
X68017000Y-69088000D02*
X70801000Y-71872000D01*
X71628000Y-76327000D02*
X70801000Y-75500000D01*
X54301000Y-73914000D02*
X55825000Y-72390000D01*
X46808000Y-73914000D02*
X54301000Y-73914000D01*
X42617000Y-68961000D02*
X45700000Y-72044000D01*
X30679000Y-72009000D02*
X33727000Y-68961000D01*
%TO.N,/scl*%
X68261000Y-74611000D02*
X68580000Y-74930000D01*
X33182000Y-72046000D02*
X33219000Y-72009000D01*
X58365000Y-72009000D02*
X58365000Y-72136000D01*
X43215000Y-71972000D02*
X43215000Y-72044000D01*
X55444000Y-75057000D02*
X46173000Y-75057000D01*
X68261000Y-72009000D02*
X68261000Y-74611000D01*
X41347000Y-70104000D02*
X43215000Y-71972000D01*
X58365000Y-72009000D02*
X60143000Y-70231000D01*
X43215000Y-72099000D02*
X43215000Y-72044000D01*
X33219000Y-72009000D02*
X33219000Y-71755000D01*
X66493000Y-70231000D02*
X68261000Y-71999000D01*
X33219000Y-71755000D02*
X34870000Y-70104000D01*
X34870000Y-70104000D02*
X41347000Y-70104000D01*
X68261000Y-71999000D02*
X68261000Y-72009000D01*
X46173000Y-75057000D02*
X43215000Y-72099000D01*
X58365000Y-72136000D02*
X55444000Y-75057000D01*
X60143000Y-70231000D02*
X66493000Y-70231000D01*
%TO.N,/g3*%
X92150000Y-73944000D02*
X90391000Y-75703000D01*
X48768000Y-100076000D02*
X49784000Y-100076000D01*
X89154000Y-87884000D02*
X89154000Y-84328000D01*
X83185000Y-93853000D02*
X89154000Y-87884000D01*
X45720000Y-87884000D02*
X47244000Y-87884000D01*
X47752000Y-88392000D02*
X47752000Y-99060000D01*
X61976000Y-93980000D02*
X62103000Y-93853000D01*
X47752000Y-99060000D02*
X48768000Y-100076000D01*
X90391000Y-75703000D02*
X90391000Y-76465000D01*
X47244000Y-87884000D02*
X47752000Y-88392000D01*
X92150000Y-72166000D02*
X92150000Y-73944000D01*
X49784000Y-100076000D02*
X50292000Y-99568000D01*
X62103000Y-93853000D02*
X83185000Y-93853000D01*
%TO.N,/g4*%
X89610000Y-72166000D02*
X89610000Y-74452000D01*
X45720000Y-111760000D02*
X46736000Y-111760000D01*
X89610000Y-74452000D02*
X88891000Y-75171000D01*
X69977000Y-84201000D02*
X86360000Y-84201000D01*
X47752000Y-112776000D02*
X47752000Y-121920000D01*
X47752000Y-121920000D02*
X49276000Y-123444000D01*
X88891000Y-75171000D02*
X88891000Y-78600000D01*
X49276000Y-123444000D02*
X50292000Y-123444000D01*
X46736000Y-111760000D02*
X47752000Y-112776000D01*
X64770000Y-89408000D02*
X69977000Y-84201000D01*
%TO.N,/g5*%
X87070000Y-72166000D02*
X87070000Y-75976000D01*
X87070000Y-75976000D02*
X87391000Y-76297000D01*
%TO.N,/g6*%
X84530000Y-73817000D02*
X84530000Y-72166000D01*
X85891000Y-78353000D02*
X85891000Y-75178000D01*
X85891000Y-75178000D02*
X84530000Y-73817000D01*
%TO.N,/g7*%
X84530000Y-76230000D02*
X81990000Y-73690000D01*
X81990000Y-73690000D02*
X81990000Y-72166000D01*
%TO.N,/g8*%
X82891000Y-77258000D02*
X82891000Y-78274000D01*
X79450000Y-73817000D02*
X82891000Y-77258000D01*
X79450000Y-72166000D02*
X79450000Y-73817000D01*
D23*
%TO.N,/t12*%
X41148000Y-92964000D02*
X36797500Y-92964000D01*
%TO.N,/t22*%
X36797500Y-116840000D02*
X41148000Y-116840000D01*
D21*
%TO.N,/rst*%
X99389000Y-100995000D02*
X101172000Y-100995000D01*
X101172000Y-100995000D02*
X102056000Y-101879000D01*
%TO.N,/boot*%
X100024000Y-75087000D02*
X99008000Y-76103000D01*
X99008000Y-76103000D02*
X97484000Y-76103000D01*
X101040000Y-75087000D02*
X100024000Y-75087000D01*
D24*
%TO.N,Net-(R3-Pad1)*%
X56891000Y-80259000D02*
X54864000Y-78232000D01*
X56891000Y-80638000D02*
X56891000Y-80259000D01*
D21*
%TO.N,/o1*%
X62484000Y-91313000D02*
X63119000Y-91948000D01*
X63119000Y-91948000D02*
X79248000Y-91948000D01*
D24*
%TO.N,Net-(R4-Pad1)*%
X56383000Y-104514000D02*
X56383000Y-104135000D01*
X56383000Y-104135000D02*
X54356000Y-102108000D01*
D21*
%TO.N,/o2*%
X62865000Y-95758000D02*
X80391000Y-95758000D01*
X62611000Y-96012000D02*
X62865000Y-95758000D01*
D23*
%TO.N,/t11*%
X52832000Y-91948000D02*
X51816000Y-92964000D01*
X52832000Y-83312000D02*
X52832000Y-91948000D01*
X50158000Y-80638000D02*
X52832000Y-83312000D01*
X51816000Y-92964000D02*
X51308000Y-92964000D01*
X49271000Y-80638000D02*
X50158000Y-80638000D01*
%TO.N,/t21*%
X51308000Y-116840000D02*
X53340000Y-114808000D01*
X49650000Y-104514000D02*
X48763000Y-104514000D01*
X53340000Y-114808000D02*
X53340000Y-108204000D01*
X53340000Y-108204000D02*
X49650000Y-104514000D01*
%TD*%
M02*
