M48
; DRILL file {KiCad 6.0.7-f9a2dced07~116~ubuntu20.04.1} date Mon 29 Aug 2022 07:47:06 AM WIB
; FORMAT={-:-/ absolute / inch / decimal}
; #@! TF.CreationDate,2022-08-29T07:47:06+07:00
; #@! TF.GenerationSoftware,Kicad,Pcbnew,6.0.7-f9a2dced07~116~ubuntu20.04.1
; #@! TF.FileFunction,Plated,1,2,PTH
FMAT,2
INCH
; #@! TA.AperFunction,Plated,PTH,ComponentDrill
T1C0.0315
; #@! TA.AperFunction,Plated,PTH,ViaDrill
T2C0.0394
; #@! TA.AperFunction,Plated,PTH,ComponentDrill
T3C0.0394
; #@! TA.AperFunction,Plated,PTH,ComponentDrill
T4C0.0472
; #@! TA.AperFunction,Plated,PTH,ComponentDrill
T5C0.0551
%
G90
G05
T1
X1.62Y-3.66
X1.62Y-4.6
X1.8Y-3.46
X1.8Y-3.86
X1.8Y-4.4
X1.8Y-4.8
X2.02Y-3.66
X2.02Y-4.6
T2
X1.82Y-4.72
X1.84Y-3.76
X1.98Y-3.92
X1.98Y-4.86
X2.14Y-4.02
X2.16Y-3.08
X2.3198Y-4.3198
X2.3398Y-3.3798
X2.44Y-3.7
X2.46Y-3.595
X2.465Y-3.78
X2.55Y-3.52
X2.59Y-2.955
X2.7Y-2.95
X2.82Y-3.005
X2.85Y-3.88
X2.88Y-5.2
X2.93Y-5.595
X2.975Y-4.44
X3.065Y-5.09
X3.12Y-3.62
X3.165Y-3.77
X3.19Y-4.475
X3.2634Y-3.0817
X3.305Y-5.06
X3.328Y-3.0012
X3.3815Y-3.0848
X3.385Y-4.995
X3.4Y-3.315
X3.4406Y-3.0038
X3.47Y-5.115
X3.475Y-4.37
X3.475Y-4.59
X3.4996Y-3.0945
X3.51Y-3.32
X3.5587Y-3.0104
X3.56Y-3.96
X3.61Y-3.335
X3.618Y-3.0962
X3.64Y-3.965
X3.688Y-3.0062
X3.695Y-3.34
X3.735Y-5.195
X3.735Y-5.395
X3.735Y-5.735
X3.735Y-5.935
X3.783Y-3.3362
X3.82Y-4.91
X3.833Y-4.1612
X3.833Y-4.332
X3.838Y-2.9962
X3.913Y-3.9762
X3.958Y-3.1762
X3.975Y-3.855
T3
X1.1078Y-2.835
X1.2078Y-2.835
X1.3078Y-2.835
X1.4078Y-2.835
X1.6014Y-2.8364
X1.7014Y-2.8364
X1.8014Y-2.8364
X1.9014Y-2.8364
X2.0978Y-2.835
X2.1978Y-2.835
X2.2978Y-2.835
X2.3978Y-2.835
X2.5874Y-2.835
X2.6874Y-2.835
X2.7874Y-2.835
X2.8874Y-2.835
X3.128Y-2.8412
X3.228Y-2.8412
X3.328Y-2.8412
X3.4083Y-4.0912
X3.428Y-2.8412
X3.5083Y-4.0912
X3.528Y-2.8412
X3.6083Y-4.0912
X3.628Y-2.8412
X3.7083Y-4.0912
X3.728Y-2.8412
X3.828Y-2.8412
X3.978Y-2.9562
X3.978Y-3.0562
X4.018Y-4.011
X4.018Y-4.111
T4
X1.7198Y-4.1147
X1.7398Y-3.1747
X1.9198Y-4.1147
X1.9398Y-3.1747
X2.2198Y-4.1147
X2.2398Y-3.1747
X2.3198Y-4.1147
X2.3398Y-3.1747
T5
X1.4487Y-3.26
X1.4487Y-3.46
X1.4487Y-3.66
X1.4487Y-4.2
X1.4487Y-4.4
X1.4487Y-4.6
X1.5Y-5.6
X1.5Y-5.8
X1.9Y-5.6
X1.9Y-5.8
X2.7487Y-5.0
X2.7487Y-5.2
X2.7487Y-5.4
X2.7487Y-5.6
X2.7487Y-5.8
X3.7463Y-5.115
X3.7463Y-5.315
X3.7463Y-5.655
X3.7463Y-5.855
X3.995Y-4.39
X3.995Y-4.59
T0
M30
