%TF.GenerationSoftware,KiCad,Pcbnew,6.0.7-f9a2dced07~116~ubuntu20.04.1*%
%TF.CreationDate,2022-08-29T07:42:26+07:00*%
%TF.ProjectId,slave_mesh,736c6176-655f-46d6-9573-682e6b696361,rev?*%
%TF.SameCoordinates,Original*%
%TF.FileFunction,Profile,NP*%
%FSLAX46Y46*%
G04 Gerber Fmt 4.6, Leading zero omitted, Abs format (unit mm)*
G04 Created by KiCad (PCBNEW 6.0.7-f9a2dced07~116~ubuntu20.04.1) date 2022-08-29 07:42:26*
%MOMM*%
%LPD*%
G01*
G04 APERTURE LIST*
%TA.AperFunction,Profile*%
%ADD10C,0.100000*%
%TD*%
G04 APERTURE END LIST*
D10*
X25908000Y-66040000D02*
X25908000Y-152400000D01*
X107188000Y-69088000D02*
X107188000Y-66040000D01*
X107188000Y-66040000D02*
X25908000Y-66040000D01*
X25908000Y-152400000D02*
X107188000Y-152400000D01*
X107188000Y-152400000D02*
X107188000Y-69088000D01*
M02*
