%TF.GenerationSoftware,KiCad,Pcbnew,6.0.7-f9a2dced07~116~ubuntu20.04.1*%
%TF.CreationDate,2022-08-29T07:42:26+07:00*%
%TF.ProjectId,slave_mesh,736c6176-655f-46d6-9573-682e6b696361,rev?*%
%TF.SameCoordinates,Original*%
%TF.FileFunction,Paste,Top*%
%TF.FilePolarity,Positive*%
%FSLAX46Y46*%
G04 Gerber Fmt 4.6, Leading zero omitted, Abs format (unit mm)*
G04 Created by KiCad (PCBNEW 6.0.7-f9a2dced07~116~ubuntu20.04.1) date 2022-08-29 07:42:26*
%MOMM*%
%LPD*%
G01*
G04 APERTURE LIST*
G04 Aperture macros list*
%AMRoundRect*
0 Rectangle with rounded corners*
0 $1 Rounding radius*
0 $2 $3 $4 $5 $6 $7 $8 $9 X,Y pos of 4 corners*
0 Add a 4 corners polygon primitive as box body*
4,1,4,$2,$3,$4,$5,$6,$7,$8,$9,$2,$3,0*
0 Add four circle primitives for the rounded corners*
1,1,$1+$1,$2,$3*
1,1,$1+$1,$4,$5*
1,1,$1+$1,$6,$7*
1,1,$1+$1,$8,$9*
0 Add four rect primitives between the rounded corners*
20,1,$1+$1,$2,$3,$4,$5,0*
20,1,$1+$1,$4,$5,$6,$7,0*
20,1,$1+$1,$6,$7,$8,$9,0*
20,1,$1+$1,$8,$9,$2,$3,0*%
G04 Aperture macros list end*
%ADD10RoundRect,0.250000X0.475000X-0.337500X0.475000X0.337500X-0.475000X0.337500X-0.475000X-0.337500X0*%
%ADD11RoundRect,0.250000X0.625000X-0.400000X0.625000X0.400000X-0.625000X0.400000X-0.625000X-0.400000X0*%
%ADD12RoundRect,0.250000X-0.400000X-0.625000X0.400000X-0.625000X0.400000X0.625000X-0.400000X0.625000X0*%
%ADD13RoundRect,0.250001X0.624999X-0.462499X0.624999X0.462499X-0.624999X0.462499X-0.624999X-0.462499X0*%
%ADD14R,1.500000X2.000000*%
%ADD15R,3.800000X2.000000*%
%ADD16RoundRect,0.250000X-0.625000X0.400000X-0.625000X-0.400000X0.625000X-0.400000X0.625000X0.400000X0*%
%ADD17RoundRect,0.150000X-0.725000X-0.150000X0.725000X-0.150000X0.725000X0.150000X-0.725000X0.150000X0*%
%ADD18RoundRect,0.250000X0.337500X0.475000X-0.337500X0.475000X-0.337500X-0.475000X0.337500X-0.475000X0*%
%ADD19RoundRect,0.250000X0.400000X0.625000X-0.400000X0.625000X-0.400000X-0.625000X0.400000X-0.625000X0*%
%ADD20RoundRect,0.250000X-0.475000X0.337500X-0.475000X-0.337500X0.475000X-0.337500X0.475000X0.337500X0*%
%ADD21R,0.900000X1.500000*%
%ADD22R,1.500000X0.900000*%
%ADD23R,1.100000X1.100000*%
G04 APERTURE END LIST*
D10*
%TO.C,C1*%
X75438000Y-136546500D03*
X75438000Y-134471500D03*
%TD*%
D11*
%TO.C,R11*%
X90805000Y-132000500D03*
X90805000Y-128900500D03*
%TD*%
D12*
%TO.C,R4*%
X56362000Y-100076000D03*
X59462000Y-100076000D03*
%TD*%
D13*
%TO.C,LL3*%
X79883000Y-109818500D03*
X79883000Y-106843500D03*
%TD*%
D14*
%TO.C,U2*%
X75551000Y-132055000D03*
X77851000Y-132055000D03*
D15*
X77851000Y-125755000D03*
D14*
X80151000Y-132055000D03*
%TD*%
D16*
%TO.C,R10*%
X77470000Y-101320000D03*
X77470000Y-104420000D03*
%TD*%
D17*
%TO.C,U3*%
X84674000Y-112141000D03*
X84674000Y-113411000D03*
X84674000Y-114681000D03*
X84674000Y-115951000D03*
X89824000Y-115951000D03*
X89824000Y-114681000D03*
X89824000Y-113411000D03*
X89824000Y-112141000D03*
%TD*%
D18*
%TO.C,C4*%
X89810500Y-118110000D03*
X87735500Y-118110000D03*
%TD*%
D19*
%TO.C,Rarus1*%
X51842000Y-97536000D03*
X48742000Y-97536000D03*
%TD*%
D13*
%TO.C,LL1*%
X85852000Y-109818500D03*
X85852000Y-106843500D03*
%TD*%
D16*
%TO.C,R1*%
X97357000Y-100969000D03*
X97357000Y-104069000D03*
%TD*%
D12*
%TO.C,R2*%
X94918000Y-78135000D03*
X98018000Y-78135000D03*
%TD*%
D11*
%TO.C,R12*%
X90805000Y-145695000D03*
X90805000Y-142595000D03*
%TD*%
D19*
%TO.C,R5*%
X94895000Y-118110000D03*
X91795000Y-118110000D03*
%TD*%
D11*
%TO.C,R6*%
X92964000Y-115596000D03*
X92964000Y-112496000D03*
%TD*%
D12*
%TO.C,R7*%
X90779000Y-110236000D03*
X93879000Y-110236000D03*
%TD*%
D20*
%TO.C,C3*%
X90805000Y-133985000D03*
X90805000Y-136060000D03*
%TD*%
D16*
%TO.C,R9*%
X80264000Y-101320000D03*
X80264000Y-104420000D03*
%TD*%
D12*
%TO.C,R3*%
X56870000Y-76200000D03*
X59970000Y-76200000D03*
%TD*%
D19*
%TO.C,Rarus2*%
X51842000Y-121412000D03*
X48742000Y-121412000D03*
%TD*%
D13*
%TO.C,LL2*%
X82804000Y-109818500D03*
X82804000Y-106843500D03*
%TD*%
D20*
%TO.C,C5*%
X90805000Y-147679500D03*
X90805000Y-149754500D03*
%TD*%
D21*
%TO.C,U1*%
X97891000Y-81166000D03*
X96391000Y-81166000D03*
X94891000Y-81166000D03*
X93391000Y-81166000D03*
X91891000Y-81166000D03*
X90391000Y-81166000D03*
X88891000Y-81166000D03*
X87391000Y-81166000D03*
X85891000Y-81166000D03*
X84391000Y-81166000D03*
X82891000Y-81166000D03*
X81391000Y-81166000D03*
X79891000Y-81166000D03*
X78391000Y-81166000D03*
X76891000Y-81166000D03*
X75391000Y-81166000D03*
D22*
X74641000Y-83166000D03*
X74641000Y-84666000D03*
X74641000Y-86166000D03*
X74641000Y-87666000D03*
X74641000Y-89166000D03*
X74641000Y-90666000D03*
X74641000Y-92166000D03*
X74641000Y-93666000D03*
X74641000Y-95166000D03*
X74641000Y-96666000D03*
D21*
X75391000Y-98666000D03*
X76891000Y-98666000D03*
X78391000Y-98666000D03*
X79891000Y-98666000D03*
X81391000Y-98666000D03*
X82891000Y-98666000D03*
X84391000Y-98666000D03*
X85891000Y-98666000D03*
X87391000Y-98666000D03*
X88891000Y-98666000D03*
X90391000Y-98666000D03*
X91891000Y-98666000D03*
X93391000Y-98666000D03*
X94891000Y-98666000D03*
X96391000Y-98666000D03*
X97891000Y-98666000D03*
D23*
X88341000Y-88726000D03*
X88341000Y-90226000D03*
X91391000Y-87226000D03*
X88341000Y-87226000D03*
X89841000Y-90226000D03*
X89841000Y-87226000D03*
X91391000Y-88726000D03*
X91391000Y-90226000D03*
X89841000Y-88726000D03*
%TD*%
D16*
%TO.C,R8*%
X83058000Y-101288750D03*
X83058000Y-104388750D03*
%TD*%
M02*
